[
    {
        "source_DOI": "10.1007/s00202-016-0423-0",
        "reference": {
            "issue": "1",
            "key": "423_CR14",
            "first-page": "170",
            "volume": "18",
            "author": "OAS Youssef",
            "year": "2003",
            "unstructured": "Youssef OAS (2003) A wavelet-based technique for discrimination between faults and magnetizing inrush currents in transformers. IEEE Trans 18(1):170\u2013176",
            "journal-title": "IEEE Trans"
        },
        "DOI_from_OpenURL": null,
        "DOI_from_STQ": "10.1109/TPWRD.2002.803797"
    },
    {
        "source_DOI": "10.1007/978-981-10-4965-1_3",
        "reference": {
            "key": "3_CR27",
            "author": "J Stefanowski",
            "year": "1997",
            "unstructured": "Stefanowski J, Slowi\u0144ski K (1997) Rough set theory and rule induction techniques for discovery of attribute dependencies in medical information systems. In: European symposium on principles of data mining and knowledge discovery. Springer, Berlin/Heidelberg",
            "volume-title": "European symposium on principles of data mining and knowledge discovery"
        },
        "DOI_from_OpenURL": null,
        "DOI_from_STQ": "10.1007/3-540-63223-9_104"
    },
    {
        "source_DOI": "10.1093/heapro/day110",
        "reference_previous": {
            "key": "key\n\t\t\t\t2018122702182510200_day110-B18",
            "first-page": "1",
            "article-title": "Time savings-realized and potential-and fair compensation for community health workers in Kenyan health facilities: a mixed-methods approach",
            "volume": "13",
            "author": "Sander",
            "year": "2015",
            "journal-title": "Human Resources for Health"
        },
        "reference": {
            "key": "key\n\t\t\t\t2019012510395510400_day110-B18",
            "first-page": "1",
            "article-title": "Time savings-realized and potential-and fair compensation for community health workers in Kenyan health facilities: a mixed-methods approach",
            "volume": "13",
            "author": "Sander",
            "year": "2015",
            "journal-title": "Human Resources for Health"
        },
        "DOI_from_OpenURL": "10.1186/1478-4491-13-6",
        "DOI_from_STQ": null
    },
    {
        "source_DOI": "10.5089/9781451858846.001",
        "reference": {
            "key": "ref131",
            "first-page": "135",
            "article-title": "andBarryBosworth Economic Growth in East Asia : Accumulation Versus Assimilation on Economic Activity No pp",
            "volume": "2",
            "author": "Collins",
            "year": "1996",
            "journal-title": "Brookings Papers"
        },
        "DOI_from_OpenURL": "10.2307/2534621",
        "DOI_from_STQ": null
    },
    {
        "source_DOI": "10.1007/s12630-010-9266-8",
        "reference": {
            "key": "9266_CR18",
            "first-page": "267",
            "volume": "58",
            "author": "R Tibshirani",
            "year": "1996",
            "unstructured": "Tibshirani R. Regression shrinkage and selection via the lasso. J R Stat Soc B 1996; 58: 267-88.",
            "journal-title": "J R Stat Soc B"
        },
        "DOI_from_OpenURL": null,
        "DOI_from_STQ": "10.1111/j.2517-6161.1996.tb02080.x"
    },
    {
        "source_DOI": "10.1007/s00216-016-9584-y",
        "reference": {
            "key": "9584_CR41",
            "first-page": "1283",
            "volume": "726",
            "author": "LR Liu",
            "year": "2013",
            "unstructured": "Liu LR, Liu LQ, Chen XQ, Shi GQ. Development of a highly sensitive chemiluminescence enzyme immunoassay for the determination of bisphenol A. Adv Mater Res. 2013;726:1283\u20136.",
            "journal-title": "Adv Mater Res"
        },
        "DOI_from_OpenURL": null,
        "DOI_from_STQ": "10.4028/www.scientific.net/AMR.726-731.1283"
    },
    {
        "source_DOI": "10.1073/pnas.1516259112",
        "reference": {
            "issue": "10",
            "key": "2015110214185782000_112.42.13093.11",
            "first-page": "3681",
            "article-title": "Encephalopsin: A novel mammalian extraretinal opsin discretely localized in the brain",
            "volume": "19",
            "author": "Blackshaw",
            "year": "1999",
            "journal-title": "J Neurosci"
        },
        "DOI_from_OpenURL": "10.1523/JNEUROSCI.19-10-03681.1999",
        "DOI_from_STQ": null
    },
    {
        "source_DOI": "10.1007/s10472-009-9152-7",
        "reference": {
            "key": "9152_CR11",
            "author": "R Brinkmann",
            "first-page": "741",
            "year": "2002",
            "unstructured": "Brinkmann, R., Drechsler, R.: RTL-datapath verification using integer linear programming. In: Proc. ASP-DAC 2002, pp. 741\u2013746. IEEE, Piscataway (2002)",
            "volume-title": "Proc. ASP-DAC 2002"
        },
        "DOI_from_OpenURL": null,
        "DOI_from_STQ": "10.1109/ASPDAC.2002.995022"
    },
    {
        "source_DOI": "10.1007/bf02235232",
        "reference": {
            "key": "BF02235232_CR2",
            "first-page": "605",
            "volume": "39",
            "author": "L. C. Silva Da",
            "year": "1960",
            "unstructured": "Da Silva, L. C., de Godoy, A., Tiexeira Mendes, F., Leite, G. M., andPontes, J. F. Indirect reacting hyperbilirubinemia after portosystemic shunt; its relation to other complications.Gastroenlerology 39:605, 1960.",
            "journal-title": "Gastroenlerology"
        },
        "DOI_from_OpenURL": "10.1016/S0016-5085(19)35230-8",
        "DOI_from_STQ": null
    },
    {
        "source_DOI": "10.1007/s10103-014-1525-4",
        "reference": {
            "key": "1525_CR24",
            "author": "IE Hoefer",
            "year": "2013",
            "unstructured": "Hoefer IE, den Adel B, Daemen MJ (2013) Biomechanical factors as triggers of vascular growth. Cardiovasc Res. doi: 10.1093/cvr/cvt089",
            "journal-title": "Cardiovasc Res"
        },
        "DOI_from_OpenURL": null,
        "DOI_from_STQ": "10.1093/cvr/cvt089"
    },
    {
        "source_DOI": "10.1007/978-0-387-35617-4_21",
        "reference": {
            "key": "21_CR5",
            "year": "1998",
            "unstructured": "Borghoff, U. M. and Pareschi, R., editors (1998). Information Technology for Knowledge Management. Springer, Berlin.",
            "volume-title": "Information Technology for Knowledge Management"
        },
        "DOI_from_OpenURL": null,
        "DOI_from_STQ": "10.1007/978-3-662-03723-2"
    },
    {
        "source_DOI": "10.1007/s10791-010-9136-6",
        "reference": {
            "key": "9136_CR43",
            "unstructured": "Yue, Y., Finley, T., Radlinski, F., & Joachims, T. (2007). A support vector method for optimizing average precision. In Proceedings of the 30th annual international ACM SIGIR conference on research and development in information retrieval (pp.\u00a0271\u2013278). New York, NY: ACM."
        },
        "DOI_from_OpenURL": null,
        "DOI_from_STQ": "10.1145/1277741.1277790"
    },
    {
        "source_DOI": "10.1007/978-3-319-57855-2_10",
        "reference": {
            "key": "10_CR26",
            "first-page": "235",
            "volume": "7",
            "author": "I Johnstone",
            "year": "2011",
            "unstructured": "Johnstone I (2011) Do international organizations have reputations? Int Org Law Rev 7:235\u2013239",
            "journal-title": "Int Org Law Rev"
        },
        "DOI_from_OpenURL": "10.1163/157237410X543297",
        "DOI_from_STQ": "10.1163/157237410X543297"
    },
    {
        "source_DOI": "10.2979/hyp.2006.21.3.1",
        "reference": {
            "key": "p_29_29",
            "unstructured": "Oudshoorn, Nelly. 2003. The male pill: A biography of a technology in the making. Durham, N.c.: Duke university Press."
        },
        "DOI_from_OpenURL": null,
        "DOI_from_STQ": "10.1215/9780822385226"
    },
    {
        "source_DOI": "10.1039/c3ob41385c",
        "reference": {
            "key": "c3ob41385c-(cit5)/*[position()=1]",
            "author": "Chapman",
            "volume": "281",
            "first-page": "L209",
            "year": "2001",
            "journal-title": "Am. J. Physiol. Lung Cell. Mol. Physiol."
        },
        "DOI_from_OpenURL": "10.1152/ajplung.2001.281.1.L209",
        "DOI_from_STQ": null
    },
    {
        "source_DOI": "10.1371/journal.pntd.0004086",
        "reference": {
            "key": "ref66",
            "first-page": "1304",
            "article-title": "Synergistic in vitro antimalarial activity of omeprazole and quinine",
            "volume": "43",
            "author": "T Skinner-Adams",
            "year": "1999",
            "journal-title": "Antimicrob Agents Chemother"
        },
        "DOI_from_OpenURL": "10.1128/AAC.43.5.1304",
        "DOI_from_STQ": null
    },
    {
        "source_DOI": "10.1007/bf00352279",
        "reference": {
            "key": "CR19",
            "author": "PN Rao",
            "first-page": "332",
            "year": "1966",
            "unstructured": "Rao PN, Engelberg J (1966) Effects of temperature on the mitotic cycle of normal and synchronized mitotic cells. In: Cameron IL, Padilla GM (eds) Cell synchrony, biosynthetic regulation. Academic Press, NY, pp 332?352",
            "volume-title": "Cell synchrony, biosynthetic regulation"
        },
        "DOI_from_OpenURL": null,
        "DOI_from_STQ": "10.1016/B978-1-4832-2925-6.50022-X"
    },
    {
        "source_DOI": "10.1007/s11269-012-0118-x",
        "reference": {
            "key": "118_CR52",
            "unstructured": "von Lany PH, Choudhury F, Hepworth N, Akande K (this issue) Applying optimisation and uncertainty analysis to help develop an integrated water resources plan for South East England. Water Resources Management"
        },
        "DOI_from_OpenURL": null,
        "DOI_from_STQ": "10.1007/s11269-012-0121-2"
    },
    {
        "source_DOI": "10.13182/fst14-t79",
        "reference": {
            "key": "CIT0001",
            "author": "SCHL\u00d6SSER M.",
            "volume": "60",
            "first-page": "976",
            "year": "2011",
            "journal-title": "Fusion. Sci. Technol."
        },
        "DOI_from_OpenURL": "10.13182/FST11-A12579",
        "DOI_from_STQ": null
    },
    {
        "source_DOI": "10.1057/9780230584143_6",
        "reference": {
            "key": "6_CR62",
            "author": "R Floud",
            "first-page": "91",
            "year": "1997",
            "unstructured": "Since it is not possible to take account of studies made in the last 15 years, mention will be made only of R. Floud and B. Harris, \u2018Health, Height and Welfare: Britain 1700\u20131980\u2019, in R.H. Steckel and R. Floud (eds), Health and Welfare during Industrialization (Chicago: University of Chicago Press, 1997), pp. 91\u2013126.",
            "volume-title": "Health and Welfare during Industrialization"
        },
        "DOI_from_OpenURL": null,
        "DOI_from_STQ": "10.7208/chicago/9780226771595.001.0001"
    },
    {
        "source_DOI": "10.1139/er-2012-0042",
        "reference": {
            "key": "refg9/ref9",
            "unstructured": "B\u00f6gli, A. 1978. Karsthydrographie und physische spel\u00e4ologie. Springer, Berlin, Germany."
        },
        "DOI_from_OpenURL": null,
        "DOI_from_STQ": "10.1007/978-3-662-08051-1"
    },
    {
        "source_DOI": "10.1111/j.1600-0625.2007.00666_10.x",
        "reference": {
            "key": "10.1111/j.1600-0625.2007.00666_10.x-BIB3-10",
            "author": "Schallreuter",
            "volume": "4",
            "first-page": "91",
            "year": "1999",
            "journal-title": "J Investig Dermatol Symp Proc"
        },
        "DOI_from_OpenURL": "10.1038/sj.jidsp.5640189",
        "DOI_from_STQ": null
    },
    {
        "source_DOI": "10.1186/s40348-016-0047-5",
        "reference": {
            "issue": "11",
            "key": "47_CR8",
            "first-page": "L1239",
            "volume": "309",
            "author": "DM Silva",
            "year": "2015",
            "unstructured": "Silva DM, Nardiello C, Pozarska A, Morty RE (2015) Recent advances in the mechanisms of lung alveolarization and the pathogenesis of bronchopulmonary dysplasia. Am J Physiol Lung Cell Mol Physiol 309(11):L1239\u20131272. doi: 10.1152/ajplung.00268.2015",
            "journal-title": "Am J Physiol Lung Cell Mol Physiol"
        },
        "DOI_from_OpenURL": "10.1152/ajplung.00268.2015",
        "DOI_from_STQ": "10.1152/ajplung.00268.2015"
    },
    {
        "source_DOI": "10.1002/poc.610081202",
        "reference": {
            "key": "10.1002/poc.610081202-BIB42.1",
            "author": "Reichardt",
            "volume": "105",
            "first-page": "1815",
            "year": "1972",
            "journal-title": "Chem. Ber."
        },
        "DOI_from_OpenURL": "10.1002/cber.19721050606",
        "DOI_from_STQ": null
    },
    {
        "source_DOI": "10.1007/s00249-015-1109-7",
        "reference": {
            "key": "1109_CR44",
            "first-page": "1000",
            "volume": "D63",
            "author": "X Liu",
            "year": "2007",
            "unstructured": "Liu X, Hanson BL, Langan P, Viola RE (2007) The effect of deuteration on protein structure: a high-resolution comparison of hydrogenous and perdeuterated haloalkane dehalogenase. Acta Cryst D63:1000\u20131008",
            "journal-title": "Acta Cryst"
        },
        "DOI_from_OpenURL": null,
        "DOI_from_STQ": "10.1107/S0907444907037705"
    },
    {
        "source_DOI": "10.1007/s10836-013-5416-6",
        "reference": {
            "key": "5416_CR50",
            "unstructured": "Vemu R, Abraham JA (2008) Budget-dependent control-flow error detection. In: 14th IEEE international on-line testing symposium IOLTS\u201908, pp 73\u201378"
        },
        "DOI_from_OpenURL": null,
        "DOI_from_STQ": "10.1109/IOLTS.2008.52"
    },
    {
        "source_DOI": "10.1007/s13205-018-1448-z",
        "reference": {
            "key": "1448_CR1",
            "first-page": "416",
            "volume": "32",
            "author": "C Abolnik",
            "year": "2015",
            "unstructured": "Abolnik C (2015) Genomic and single nucleotide polymorphism analysis of infectious bronchitis coronavirus. Infect Genet Evolut J Mol Epidemiol Evolut Genet Infect Dis 32:416\u2013424",
            "journal-title": "Infect Genet Evolut J Mol Epidemiol Evolut Genet Infect Dis"
        },
        "DOI_from_OpenURL": null,
        "DOI_from_STQ": "10.1016/j.meegid.2015.03.033"
    },
    {
        "source_DOI": "10.1007/s00182-009-0220-3",
        "reference": {
            "key": "220_CR2",
            "first-page": "405",
            "volume": "59",
            "author": "E Bjorndal",
            "year": "2004",
            "unstructured": "Bjorndal E, Hamers H, Koster M (2004) Cost allocation in a bank ATM network. Math Methods Oper Res 59: 405\u2013418",
            "journal-title": "Math Methods Oper Res"
        },
        "DOI_from_OpenURL": null,
        "DOI_from_STQ": "10.1007/s001860400351"
    },
    {
        "source_DOI": "10.1057/9780230299245_7",
        "reference": {
            "key": "7_CR25",
            "author": "WJ Freeman",
            "year": "2000",
            "unstructured": "Freeman, W.J. (2000) \u2018Brains create macroscopic order from microscopic disorder by neurodynamics in perception\u2019, in P. \u00c5rhem, C. Blomberg and H. Liljenstrom, (eds) Disorder versus Order in Brain Function: Essays in Theoretical Neurobiology, Singapore: World Scientific Publishing Co.",
            "volume-title": "Disorder versus Order in Brain Function: Essays in Theoretical Neurobiology"
        },
        "DOI_from_OpenURL": null,
        "DOI_from_STQ": "10.1142/9789812813398_0009"
    },
    {
        "source_DOI": "10.1134/s1063778806110081",
        "reference": {
            "key": "1008_CR90",
            "first-page": "424",
            "volume": "28",
            "author": "A. E. Asratyan",
            "year": "1978",
            "unstructured": "A. E. Asratyan et al., Yad. Fiz. 28, 424 (1978) [Sov. J. Nucl. Phys. 28, 214 (1978)]; Phs. Lett. B 76, 239 (1978).",
            "journal-title": "Yad. Fiz."
        },
        "DOI_from_OpenURL": null,
        "DOI_from_STQ": "10.1016/0370-2693(78)90286-1"
    },
    {
        "source_DOI": "10.1007/s10877-014-9617-z",
        "reference": {
            "key": "9617_CR45",
            "unstructured": "Benjamini Y, Hochberg Y. Controlling the false discovery rate: a practical and powerful approach to multiple testing. J Roy Stat Soc Ser B. 1995;57(1):289\u2013300. http://www.jstor.org/stable/2346101 ."
        },
        "DOI_from_OpenURL": null,
        "DOI_from_STQ": "10.1111/j.2517-6161.1995.tb02031.x"
    },
    {
        "source_DOI": "10.1111/pbr.12356",
        "reference": {
            "key": "10.1111/pbr.12356-BIB0015|pbr12356-cit-0015",
            "first-page": "1820",
            "article-title": "Genetic diversity and population structure of traditional greek and cypriot melon cultigens (Cucumis melo L.) based on simple sequence repeat variability",
            "volume": "44",
            "author": "Emmanouil",
            "year": "2009",
            "journal-title": "HortScience"
        },
        "DOI_from_OpenURL": "10.21273/HORTSCI.44.7.1820",
        "DOI_from_STQ": null
    },
    {
        "source_DOI": "10.1371/journal.pone.0096758",
        "reference": {
            "key": "ref3",
            "first-page": "S11",
            "article-title": "Chickpea: Nutritional properties and its benefits",
            "volume": "108",
            "author": "AK Jukanti",
            "year": "2012",
            "journal-title": "Brit J Nutr"
        },
        "DOI_from_OpenURL": "10.1017/S0007114512000797",
        "DOI_from_STQ": null
    },
    {
        "source_DOI": "10.7202/1017394ar",
        "reference": {
            "key": "10.7202/1017394ar_ref11",
            "unstructured": "Howell, S. (2006). The Kinning of Foreigners\u00a0: Transnational Adoption in a Global Perspective, New York, Berghahn Books."
        },
        "DOI_from_OpenURL": null,
        "DOI_from_STQ": "10.2307/j.ctt1x76frr"
    },
    {
        "source_DOI": "10.1007/s11103-015-0376-0",
        "reference": {
            "key": "376_CR46",
            "first-page": "56",
            "volume": "64",
            "author": "G Xiong",
            "year": "2010",
            "unstructured": "Xiong G, Li R, Qian Q, Song X, Liu X, Yu Y, Zeng D, Wan J, Li J, Zhou Y (2010) The rice dynamin-related protein DRP2B mediates membrane trafficking, and thereby plays a critical role in secondary cell wall cellulose biosynthesis. Plant J 64:56\u201370",
            "journal-title": "Plant J"
        },
        "DOI_from_OpenURL": null,
        "DOI_from_STQ": "10.1111/j.1365-313X.2010.04308.x"
    },
    {
        "source_DOI": "10.1165/ajrcmb.36.3.388",
        "reference": {
            "key": "BIB9",
            "unstructured": "Johnson A, Ferro TJ. Nitrovasodilator repletion increases TNF-alpha-induced pulmonary edema.J Appl Physiol1996;80:2151\u20132155."
        },
        "DOI_from_OpenURL": null,
        "DOI_from_STQ": "10.1152/jappl.1996.80.6.2151"
    },
    {
        "source_DOI": "10.1002/1099-1085(200007)14:10<1751::aid-hyp68>3.0.co;2-u",
        "reference": {
            "key": "10.1002/1099-1085(200007)14:10<1751::AID-HYP68>3.0.CO;2-U-BIB17",
            "author": "Sidle",
            "volume": "168",
            "first-page": "227",
            "year": "1995",
            "journal-title": "Journal of Hydrology"
        },
        "DOI_from_OpenURL": "10.1016/0022-1694(94)02639-S",
        "DOI_from_STQ": null
    },
    {
        "source_DOI": "10.1007/978-3-319-75883-1_5",
        "reference": {
            "key": "5_CR39",
            "unstructured": "Gouin, R.R., 2004: \u201cWhat\u2019s So Funny? Humor in Women\u2019s Accounts of their Involvement in Social Action\u201d, in: Qualitative Research, 4: 25\u201344."
        },
        "DOI_from_OpenURL": null,
        "DOI_from_STQ": "10.1177/1468794104041106"
    },
    {
        "source_DOI": "10.1007/s10973-005-7477-y",
        "reference": {
            "key": "7477_CR19",
            "first-page": "947",
            "volume": "E61",
            "author": "I. Ucar",
            "year": "2005",
            "unstructured": "I. Ucar, O. Z. Ye\u015filel, A. Bulut, H. \u00d6lmez and O. B\u00fcy\u00fckg\u00fcng\u00f6r, Acta Cryst., E61 (2005) m947.",
            "journal-title": "Acta Cryst."
        },
        "DOI_from_OpenURL": null,
        "DOI_from_STQ": "10.1107/S1600536805012055"
    },
    {
        "source_DOI": "10.1017/s0022143000021079",
        "reference": {
            "key": "S0022143000021079_ref18",
            "volume": "14",
            "first-page": "235",
            "year": "1975",
            "journal-title": "journal of Glaciology"
        },
        "DOI_from_OpenURL": "10.1017/S0022143000021729",
        "DOI_from_STQ": null
    },
    {
        "source_DOI": "10.1145/3139958.3139985",
        "reference": {
            "key": "key-10.1145/3139958.3139985-18",
            "unstructured": "M Kreveld, R Oostrum, C Bajaj, V Pascucci, and D Schikore. 1997. Contour trees and small seed sets for isosurface traversal. In Proc. 13th annu. sympos. on Comp. geom. 212--220."
        },
        "DOI_from_OpenURL": null,
        "DOI_from_STQ": "10.1145/262839.269238"
    },
    {
        "source_DOI": "10.1007/978-3-319-27114-9_21",
        "reference": {
            "issue": "3",
            "key": "21_CR30",
            "first-page": "6",
            "volume": "2007",
            "author": "J Korner",
            "year": "2007",
            "unstructured": "Korner J, Bessler M, Inabnet W, et al. Exaggerated glucagon-like peptide-1 and blunted glucose-dependent insulinotropic peptide secretion are associated with Roux-en-Y gastric bypass but not adjustable gastric banding. Surg Obes Relat Dis. 2007;2007(3):6.",
            "journal-title": "Surg Obes Relat Dis"
        },
        "DOI_from_OpenURL": null,
        "DOI_from_STQ": "10.1016/j.soard.2007.08.004"
    },
    {
        "source_DOI": "10.1210/jc.2018-01613",
        "reference": {
            "issue": "3",
            "key": "key\n\t\t\t\t2018103011003880700_B18",
            "first-page": "127",
            "article-title": "Clinical practice guidelines for congenital hyperinsulinism",
            "volume": "26",
            "author": "Yorifuji",
            "year": "2017",
            "journal-title": "Clin Pediatr Endocrinol"
        },
        "DOI_from_OpenURL": "10.1297/cpe.26.127",
        "DOI_from_STQ": null
    },
    {
        "source_DOI": "10.1074/jbc.m109946200",
        "reference": {
            "key": "2017062210171608000_277.13.11582.16",
            "author": "Foster",
            "volume": "8",
            "first-page": "192",
            "year": "1994",
            "journal-title": "FASEB J."
        },
        "DOI_from_OpenURL": "10.1096/fasebj.8.2.8119490",
        "DOI_from_STQ": null
    },
    {
        "source_DOI": "10.1002/zaac.19794530606",
        "reference": {
            "key": "10.1002/zaac.19794530606-BIB10",
            "author": "Cullen",
            "volume": "43",
            "first-page": "3193",
            "year": "1965",
            "journal-title": "Can. J. Chem."
        },
        "DOI_from_OpenURL": "10.1139/v65-445",
        "DOI_from_STQ": null
    },
    {
        "source_DOI": "10.1164/ajrccm/145.4_pt_1.782",
        "reference": {
            "key": "p_66",
            "volume": "135",
            "first-page": "1276",
            "year": "1987",
            "journal-title": "Am Rev Respir Dis"
        },
        "DOI_from_OpenURL": "10.1164/arrd.1987.135.6.1276",
        "DOI_from_STQ": null
    },
    {
        "source_DOI": "10.1038/sj.onc.1208836",
        "reference": {
            "key": "BF1208836_CR94",
            "unstructured": "Wu Y, Mehew JW, Heckman CA, Arcinas M and Boxer LM . (2001). Oncogene, 20, 240\u2013251."
        },
        "DOI_from_OpenURL": null,
        "DOI_from_STQ": "10.1038/sj.onc.1204067"
    },
    {
        "source_DOI": "10.1007/s10876-014-0785-2",
        "reference": {
            "key": "785_CR16",
            "year": "1995",
            "unstructured": "P. J. Stang and F. Diederich (eds.) Modern Acetylenic Chemistry (Wiley-VCH, Weinheim, 1995).",
            "volume-title": "Modern Acetylenic Chemistry"
        },
        "DOI_from_OpenURL": null,
        "DOI_from_STQ": "10.1002/9783527615278"
    },
    {
        "source_DOI": "10.1007/s10639-013-9276-6",
        "reference": {
            "key": "9276_CR2",
            "unstructured": "Banovic, N., Grossman, T., Matejka, J., Fitzmaurice, G. (2012). Waken: reverse engineering usage information and interface structure from software videos. ACM UIST, 83\u201392."
        },
        "DOI_from_OpenURL": null,
        "DOI_from_STQ": "10.1145/2380116.2380129"
    },
    {
        "source_DOI": "10.1002/2017jc013286",
        "reference": {
            "key": "10.1002/2017JC013286-BIB0011|jgrc22579-cit-0012",
            "first-page": "7547",
            "article-title": "Remote sources for year-to-year changes in the seasonality of the Florida Current transport",
            "volume": "121",
            "author": "Domingues",
            "year": "2016",
            "journal-title": "Journal of Geophysical Research: Oceans"
        },
        "DOI_from_OpenURL": "10.1002/2016JC012070",
        "DOI_from_STQ": null
    },
    {
        "source_DOI": "10.1007/s00063-016-0247-8",
        "reference": {
            "issue": "Suppl 2",
            "key": "247_CR12",
            "first-page": "129",
            "volume": "23",
            "author": "T Horlocker",
            "year": "1998",
            "unstructured": "Horlocker T, Wedel DJ (1998) Anticoagulation and neuraxial block: historical perspective, anesthetic implications, and risk management. Reg Anesth Pain Med 23(Suppl 2):129\u2013134",
            "journal-title": "Reg Anesth Pain Med"
        },
        "DOI_from_OpenURL": null,
        "DOI_from_STQ": "10.1097/00115550-199823062-00001"
    },
    {
        "source_DOI": "10.1038/258599a0",
        "reference": {
            "key": "BF258599a0_CR19",
            "first-page": "482",
            "volume": "34",
            "author": "JC Goldstein",
            "year": "1969",
            "unstructured": "Goldstein, J. C., and Wick, E. L., J. FoodSci., 34, 482\u2013484 (1969).",
            "journal-title": "J. FoodSci."
        },
        "DOI_from_OpenURL": null,
        "DOI_from_STQ": "10.1111/j.1365-2621.1969.tb12064.x"
    },
    {
        "source_DOI": "10.1007/s11242-015-0472-2",
        "reference": {
            "issue": "1",
            "key": "472_CR3",
            "first-page": "27",
            "volume": "A1",
            "author": "H Brinkman",
            "year": "1947",
            "unstructured": "Brinkman, H.: A calculation of viscous force exerted by a owing fluid on dense swarm of particles. Appl. Sci. Res. A1(1), 27\u201334 (1947)",
            "journal-title": "Appl. Sci. Res."
        },
        "DOI_from_OpenURL": "10.1007/BF02120313",
        "DOI_from_STQ": null
    },
    {
        "source_DOI": "10.1002/ana.410240406",
        "reference": {
            "key": "10.1002/ana.410240406-BIB35",
            "author": "Johnson",
            "volume": "13",
            "first-page": "99",
            "year": "1986",
            "journal-title": "J Neuroimmunol"
        },
        "DOI_from_OpenURL": "10.1016/0165-5728(86)90053-6",
        "DOI_from_STQ": null
    },
    {
        "source_DOI": "10.1093/ndt/gfx328",
        "reference_previous": {
            "key": "\nkey\n\t\t\t\t20180118043116_gfx328-B37",
            "volume": "13",
            "first-page": "169",
            "year": "2003",
            "article-title": "Epithelial polarity and tubulogenesis in vitro",
            "journal-title": "Trends Cell Biol",
            "DOI": "10.1016/S0962-8924(03)00036-9",
            "doi-asserted-by": "crossref"
        },
        "reference": {
            "key": "key\n\t\t\t\t20180702062803_gfx328-B37",
            "first-page": "169",
            "article-title": "Epithelial polarity and tubulogenesis in vitro",
            "volume": "13",
            "author": "Zegers",
            "year": "2003",
            "journal-title": "Trends Cell Biol"
        },
        "DOI_from_OpenURL": "10.1016/S0962-8924(03)00036-9",
        "DOI_from_STQ": null
    },
    {
        "source_DOI": "10.1002/bip.1973.360121111",
        "reference": {
            "key": "10.1002/bip.1973.360121111-BIB40",
            "author": "Karplus",
            "volume": "85",
            "first-page": "2870",
            "year": "1963",
            "journal-title": "J. Am. Chem. Soc."
        },
        "DOI_from_OpenURL": "10.1021/ja00901a059",
        "DOI_from_STQ": null
    },
    {
        "source_DOI": "10.1145/3213309",
        "reference": {
            "key": "key-10.1145/3213309-21",
            "unstructured": "L. Martin and D. Schwartz. 2009. Prospective adaptation in the use of external representations. Cogn. Instruct. 27, 4 (2009), 370--400."
        },
        "DOI_from_OpenURL": null,
        "DOI_from_STQ": "10.1080/07370000903221775"
    },
    {
        "source_DOI": "10.1039/c4tc00440j",
        "reference": {
            "key": "C4TC00440J-(cit32)/*[position()=1]",
            "author": "Georgieva",
            "volume": "223",
            "first-page": "012018",
            "year": "2010",
            "journal-title": "J. Phys.: Conf. Ser."
        },
        "DOI_from_OpenURL": "10.1088/1742-6596/223/1/012018",
        "DOI_from_STQ": null
    },
    {
        "source_DOI": "10.1515/jpem-2015-0263",
        "reference": {
            "key": "ref21",
            "first-page": "1300",
            "article-title": "Management of people with diabetes during Ramadan PinarRManagement of people with diabetes during RamadanBr J",
            "volume": "11",
            "author": "Pinar",
            "year": "2002",
            "journal-title": "Br J Nurs Nurs"
        },
        "DOI_from_OpenURL": "10.12968/bjon.2002.11.20.10768",
        "DOI_from_STQ": null
    },
    {
        "source_DOI": "10.1007/s10151-013-1106-8",
        "reference": {
            "key": "1106_CR75",
            "first-page": "i29",
            "volume": "51",
            "author": "H Mertz",
            "year": "2002",
            "unstructured": "Mertz H (2002) Role of the brain and sensory pathways in gastrointestinal sensory disorders in humans. Gastroenterology 51:i29\u2013i33",
            "journal-title": "Gastroenterology"
        },
        "DOI_from_OpenURL": null,
        "DOI_from_STQ": "10.1136/gut.51.suppl_1.i29"
    },
    {
        "source_DOI": "10.1134/s102833581307001x",
        "reference": {
            "key": "9566_CR9",
            "first-page": "37",
            "volume": "32",
            "author": "M R Manning",
            "year": "1990",
            "unstructured": "M. R. Manning et al., Radiocarbon 32, 37 (1990).",
            "journal-title": "Radiocarbon"
        },
        "DOI_from_OpenURL": "10.1017/S0033822200039941",
        "DOI_from_STQ": "10.1017/S0033822200039941"
    },
    {
        "source_DOI": "10.1007/978-3-642-21437-0_8",
        "reference": {
            "key": "8_CR4",
            "author": "C. Csallner",
            "first-page": "422",
            "year": "2005",
            "unstructured": "Csallner, C., Smaragdakis, Y.: Check \u2019n\u2019 Crash: Combining static checking and testing. In: ICSE, pp. 422\u2013431. ACM, New York (2005)",
            "volume-title": "ICSE"
        },
        "DOI_from_OpenURL": null,
        "DOI_from_STQ": "10.1145/1062455.1062533"
    },
    {
        "source_DOI": "10.1080/01630568008816056",
        "reference": {
            "key": "CIT0026",
            "author": "Mosco U.",
            "volume": "543",
            "first-page": "83",
            "year": "1976",
            "volume-title": "Lect. Notes Math."
        },
        "DOI_from_OpenURL": "10.1007/BFb0079943",
        "DOI_from_STQ": null
    },
    {
        "source_DOI": "10.1046/j.1365-3083.2003.01279.x",
        "reference": {
            "key": "10.1046/j.1365-3083.2003.01279.x-BIB17",
            "first-page": "13",
            "article-title": "Sequences and factors: a guide to MHC class-II transcription",
            "volume": "10",
            "author": "Glimcher",
            "year": "1992",
            "journal-title": "Annu Rev Immunol"
        },
        "DOI_from_OpenURL": "10.1146/annurev.iy.10.040192.000305",
        "DOI_from_STQ": null
    },
    {
        "source_DOI": "10.1152/jn.00053.2017",
        "reference": {
            "key": "B24",
            "author": "Debarbieux F",
            "volume": "23",
            "first-page": "5553",
            "year": "2003",
            "journal-title": "J Neurosci"
        },
        "DOI_from_OpenURL": "10.1523/JNEUROSCI.23-13-05553.2003",
        "DOI_from_STQ": null
    },
    {
        "source_DOI": "10.1007/s00044-013-0819-6",
        "reference": {
            "issue": "5",
            "key": "819_CR2",
            "first-page": "1236",
            "volume": "137",
            "author": "GS Alexia",
            "year": "2007",
            "unstructured": "Alexia GS, Patricia AS, Harp JB, Melinda AB (2007) Diet-induced obese mice have increased mortality and altered immune responses when infected with influenza virus. J Nutr 137(5):1236\u20131243",
            "journal-title": "J Nutr"
        },
        "DOI_from_OpenURL": "10.1093/jn/137.5.1236",
        "DOI_from_STQ": "10.1093/jn/137.5.1236"
    },
    {
        "source_DOI": "10.1017/s0140525x00040978",
        "reference": {
            "key": "S0140525X00040978_ref008",
            "first-page": "325",
            "article-title": "Merging different motor patterns: Coordination between rhythmical and discrete single-joint movements",
            "volume": "99",
            "author": "Adamovich",
            "year": "1993",
            "journal-title": "Experimental Brain Research"
        },
        "DOI_from_OpenURL": "10.1016/S0079-6123(08)61355-2",
        "DOI_from_STQ": null
    },
    {
        "source_DOI": "10.1034/j.1600-051x.2003.10196.x",
        "reference": {
            "key": "b30_279",
            "author": "Silness J.",
            "volume": "22",
            "first-page": "121",
            "year": "1964",
            "journal-title": "Acta Odontologica Scandinavica"
        },
        "DOI_from_OpenURL": "10.3109/00016356408993968",
        "DOI_from_STQ": null
    },
    {
        "source_DOI": "10.1002/job.1955",
        "reference": {
            "key": "10.1002/job.1955-BIB0006|job1955-cit-0006",
            "first-page": "331",
            "article-title": "Is cognitive ability a liability? A critique and future research agenda on skilled performance",
            "volume": "18",
            "author": "Beier",
            "year": "2012",
            "journal-title": "Journal of Experimental Psychology: Applied"
        },
        "DOI_from_OpenURL": "10.1037/a0030869",
        "DOI_from_STQ": null
    },
    {
        "source_DOI": "10.1002/abio.370110416",
        "reference": {
            "key": "10.1002/abio.370110416-BIB7",
            "author": "Syldatk",
            "volume": "40c",
            "first-page": "61",
            "year": "1985",
            "journal-title": "Z. Naturforsch."
        },
        "DOI_from_OpenURL": "10.1515/znc-1985-1-213",
        "DOI_from_STQ": null
    },
    {
        "source_DOI": "10.3389/fnins.2017.00313",
        "reference": {
            "key": "B11",
            "first-page": "274",
            "article-title": "Oscillatory coupling of hippocampal pyramidal cells and interneurons in the behaving Rat",
            "volume": "19",
            "author": "Csicsvari",
            "year": "1999",
            "journal-title": "J. Neurosci."
        },
        "DOI_from_OpenURL": "10.1523/JNEUROSCI.19-01-00274.1999",
        "DOI_from_STQ": null
    },
    {
        "source_DOI": "10.1093/femsyr/foy016",
        "reference_previous": {
            "key": "\nkey\n\t\t\t\t20180314012258_bib20",
            "first-page": "2583",
            "article-title": "A 22 bp cis-acting element is necessary and sufficient for the induction of the yeast KAR2 (BiP) gene by unfolded proteins",
            "volume": "11",
            "author": "Mori",
            "year": "1992",
            "journal-title": "EMBO J"
        },
        "reference": {
            "key": "key\n\t\t\t\t20180314012258_bib20",
            "first-page": "2583",
            "article-title": "A 22 bp cis-acting element is necessary and sufficient for the induction of the yeast KAR2 (BiP) gene by unfolded proteins",
            "volume": "11",
            "author": "Mori",
            "year": "1992",
            "journal-title": "EMBO J"
        },
        "DOI_from_OpenURL": "10.1002/j.1460-2075.1992.tb05323.x",
        "DOI_from_STQ": null
    },
    {
        "source_DOI": "10.1007/jhep09(2018)146",
        "reference": {
            "key": "9074_CR32",
            "author": "M Clemencic",
            "volume": "331",
            "year": "2011",
            "unstructured": "M. Clemencic et al., The LHCb simulation application, Gauss: design, evolution and experience, J. Phys. Conf. Ser. 331 (2011) 032023 [\nINSPIRE\n\n].",
            "journal-title": "J. Phys. Conf. Ser."
        },
        "DOI_from_OpenURL": null,
        "DOI_from_STQ": "10.1088/1742-6596/331/3/032023"
    },
    {
        "source_DOI": "10.1080/09168451.2014.940837",
        "reference": {
            "key": "CIT0019",
            "author": "Mizuno K",
            "volume": "89",
            "first-page": "329",
            "year": "1981",
            "journal-title": "J. Biochem"
        },
        "DOI_from_OpenURL": "10.1093/oxfordjournals.jbchem.a133199",
        "DOI_from_STQ": null
    },
    {
        "source_DOI": "10.1007/bfb0062181",
        "reference": {
            "key": "18_CR19",
            "first-page": "235",
            "volume": "41",
            "author": "A. Suslin",
            "year": "1977",
            "unstructured": "A. Suslin, On the structure of the special linear group over a polynomial ring, Izv. Akad. Nauk SSSR, Ser. Mat. 41 (1977), 235\u2013252, 477 = Math. USSR Izv. 11 (1977), 221\u2013238.",
            "journal-title": "Izv. Akad. Nauk SSSR, Ser. Mat."
        },
        "DOI_from_OpenURL": null,
        "DOI_from_STQ": "10.1070/IM1977v011n02ABEH001709"
    },
    {
        "source_DOI": "10.1007/s10608-013-9583-7",
        "reference": {
            "key": "9583_CR52",
            "first-page": "263",
            "volume": "2",
            "author": "P Trower",
            "year": "1995",
            "unstructured": "Trower, P., & Chadwick, P. (1995). Pathways to defense of the self: A theory of two types of paranoia. Clinical Psychology: Science and Practice, 2, 263\u2013278.",
            "journal-title": "Clinical Psychology: Science and Practice"
        },
        "DOI_from_OpenURL": "10.1111/j.1468-2850.1995.tb00044.x",
        "DOI_from_STQ": "10.1111/j.1468-2850.1995.tb00044.x"
    },
    {
        "source_DOI": "10.5194/hess-19-3653-2015",
        "reference": {
            "key": "ref30",
            "unstructured": "Lafferty, B., Quinn, R., and Breen, C.: A side-scan sonar and high-resolution Chirp sub-bottom profile study of the natural and anthropogenic sedimen tary record of Lower Lough Erne, northwestern Ireland, J. Archaeol. Sci., 33, 756\u2013766, 2005."
        },
        "DOI_from_OpenURL": null,
        "DOI_from_STQ": "10.1016/j.jas.2005.10.007"
    },
    {
        "source_DOI": "10.1177/014107688007300911",
        "reference": {
            "key": "bibr-bibr4-014107688007300911",
            "author": "Balfour D C",
            "volume": "18",
            "first-page": "606",
            "year": "1951",
            "journal-title": "Gastroenterology"
        },
        "DOI_from_OpenURL": "10.1016/S0016-5085(51)80132-X",
        "DOI_from_STQ": null
    },
    {
        "source_DOI": "10.4315/0362-028x-66.9.1697",
        "reference": {
            "key": "p_28",
            "author": "Zhao T.",
            "volume": "60",
            "first-page": "215",
            "year": "1997",
            "journal-title": "J. Food Prot."
        },
        "DOI_from_OpenURL": "10.4315/0362-028X-60.3.215",
        "DOI_from_STQ": null
    },
    {
        "source_DOI": "10.1093/ejo/cjy079",
        "reference_previous": {
            "key": "key\n\t\t\t\t2018122622581814500_CIT0016",
            "first-page": "233",
            "article-title": "Dental anxiety associated with orthodontic care: prevalence and contributing factors",
            "volume": "24",
            "author": "Roy",
            "year": "(2018)",
            "journal-title": "Seminars in Orthodontics"
        },
        "reference": {
            "key": "key\n\t\t\t\t2019012511021398700_CIT0016",
            "first-page": "233",
            "article-title": "Dental anxiety associated with orthodontic care: prevalence and contributing factors",
            "volume": "24",
            "author": "Roy",
            "year": "(2018)",
            "journal-title": "Seminars in Orthodontics"
        },
        "DOI_from_OpenURL": "10.1053/j.sodo.2018.04.005",
        "DOI_from_STQ": null
    },
    {
        "source_DOI": "10.1108/14626001211250144",
        "reference": {
            "key": "b51",
            "unstructured": "Robinson, P.B., Stimpson, D.V., Huefner, J.C. and Hunt, H.K. (1991), \u201cAn attitude approach to the prediction of entrepreneurship\u201d,Entrepreneurship Theory and Practice, Vol. 15, pp. 13\u201031."
        },
        "DOI_from_OpenURL": null,
        "DOI_from_STQ": "10.1177/104225879101500405"
    },
    {
        "source_DOI": "10.1002/hlca.19890720514",
        "reference": {
            "key": "10.1002/hlca.19890720514-BIB3.8",
            "author": "Davis",
            "volume": "52",
            "first-page": "5288",
            "year": "1987",
            "journal-title": "J. Org. Chem."
        },
        "DOI_from_OpenURL": "10.1021/jo00232a046",
        "DOI_from_STQ": null
    },
    {
        "source_DOI": "10.1074/jbc.m113.485268",
        "reference": {
            "key": "2017062217115083000_288.36.25895.11",
            "first-page": "865",
            "article-title": "Structural features of low molecular weight heparins affecting their affinity to antithrombin",
            "volume": "102",
            "author": "Bisio",
            "year": "2009",
            "journal-title": "Thromb. Haemost"
        },
        "DOI_from_OpenURL": "10.1160/TH09-02-0081",
        "DOI_from_STQ": null
    },
    {
        "source_DOI": "10.1002/14651858.cd001298.pub2",
        "reference": {
            "key": "10.1002/14651858.CD001298.pub2-BIB11|cit11",
            "first-page": "204",
            "article-title": "Die Einwirkung von grossen intraperitonealen Dosen Glukokortikoid auf die Bildung von postoperativen Adhasionen",
            "volume": "46",
            "author": "Swolin",
            "year": "1967",
            "journal-title": "Acta Obstetricia et Gynaecologica Scandinavica"
        },
        "DOI_from_OpenURL": "10.3109/00016346709158541",
        "DOI_from_STQ": null
    },
    {
        "source_DOI": "10.1002/mus.880180306",
        "reference": {
            "key": "10.1002/mus.880180306-BIB20",
            "author": "Sar",
            "volume": "197",
            "first-page": "77",
            "year": "1977",
            "journal-title": "Science"
        },
        "DOI_from_OpenURL": "10.1126/science.867053",
        "DOI_from_STQ": null
    },
    {
        "source_DOI": "10.1007/bf00649110",
        "reference": {
            "key": "CR15",
            "first-page": "37",
            "volume": "45",
            "author": "RH Kerman",
            "year": "1988",
            "unstructured": "Kerman RH, Buren CT van, Lewis RM, Kahan BD (1988) Successful transplantation of 100 untransfused cyclosporine-treated primary recipients of cadaveric renal allografts. Transplantation 45: 37?40",
            "journal-title": "Transplantation"
        },
        "DOI_from_OpenURL": "10.1097/00007890-198801000-00009",
        "DOI_from_STQ": "10.1097/00007890-198801000-00009"
    },
    {
        "source_DOI": "10.1371/journal.pone.0058897",
        "reference": {
            "key": "ref33",
            "first-page": "2260",
            "article-title": "Cell-demanded release of VEGF from synthetic, biointeractive cell ingrowth matrices for vascularized tissue growth",
            "volume": "17",
            "author": "AH Zisch",
            "year": "2003",
            "journal-title": "FASEB J"
        },
        "DOI_from_OpenURL": "10.1096/fj.02-1041fje",
        "DOI_from_STQ": null
    },
    {
        "source_DOI": "10.1007/s10509-016-2669-4",
        "reference": {
            "key": "2669_CR45",
            "author": "R. Myrzakulov",
            "volume": "84",
            "year": "2011",
            "unstructured": "Myrzakulov, R.: Phys. Rev. D 84, 024020 (2011)",
            "journal-title": "Phys. Rev. D"
        },
        "DOI_from_OpenURL": null,
        "DOI_from_STQ": "10.1103/PhysRevD.84.024020"
    },
    {
        "source_DOI": "10.1074/jbc.m103527200",
        "reference": {
            "key": "2017062210123161000_276.46.42893.59",
            "author": "Foletti",
            "volume": "20",
            "first-page": "4535",
            "year": "2000",
            "journal-title": "J. Neurosci."
        },
        "DOI_from_OpenURL": "10.1523/JNEUROSCI.20-12-04535.2000",
        "DOI_from_STQ": null
    },
    {
        "source_DOI": "10.1007/s00436-009-1454-5",
        "reference": {
            "key": "1454_CR5",
            "first-page": "545",
            "volume": "46",
            "author": "LS Diamond",
            "year": "1957",
            "unstructured": "Diamond LS (1957) The establishment of various trichomonads of animals and man in axenic cultures. J Parasitol 46:545",
            "journal-title": "J Parasitol"
        },
        "DOI_from_OpenURL": null,
        "DOI_from_STQ": "10.2307/3274682"
    },
    {
        "source_DOI": "10.1007/s00586-013-3108-7",
        "reference": {
            "key": "3108_CR12",
            "first-page": "38",
            "volume": "34B",
            "author": "RHV Hafner",
            "year": "1952",
            "unstructured": "Hafner RHV, Surrey C (1952) Localised osteochondritis (Scheuermann\u2019s disease). J Bone Joint Surg 34B:38\u201340",
            "journal-title": "J Bone Joint Surg"
        },
        "DOI_from_OpenURL": "10.1302/0301-620X.34B1.38",
        "DOI_from_STQ": "10.1302/0301-620X.34B1.38"
    },
    {
        "source_DOI": "10.1007/s10619-012-7103-5",
        "reference": {
            "key": "7103_CR28",
            "author": "M. Stonebraker",
            "first-page": "397",
            "year": "1992",
            "unstructured": "Stonebraker, M., Frew, J., Dozier, J.: An overview of the sequoia 2000 project. In: Proceedings of the Third International Symposium on Large Spatial Databases, pp. 397\u2013412 (1992)",
            "volume-title": "Proceedings of the Third International Symposium on Large Spatial Databases"
        },
        "DOI_from_OpenURL": null,
        "DOI_from_STQ": "10.1109/CMPCON.1992.186743"
    },
    {
        "source_DOI": "10.5089/9781451862522.001",
        "reference": {
            "key": "ref11",
            "first-page": "584",
            "article-title": "The Purchasing-Power Parity Doctrine: A Reappraisal",
            "volume": "Vol. 72",
            "author": "Balassa",
            "year": "1964",
            "journal-title": "Journal of Political Economy"
        },
        "DOI_from_OpenURL": "10.1086/258965",
        "DOI_from_STQ": null
    },
    {
        "source_DOI": "10.1108/bfj-03-2016-0088",
        "reference": {
            "issue": "1",
            "key": "ref033",
            "first-page": "63",
            "volume": "21",
            "author": "Jomori M.",
            "year": "2008",
            "journal-title": "Revista de Nutri\u04ab\u00e3o"
        },
        "DOI_from_OpenURL": "10.1590/S1415-52732008000100007",
        "DOI_from_STQ": null
    },
    {
        "source_DOI": "10.1007/s00894-014-2311-8",
        "reference": {
            "key": "2311_CR46",
            "author": "HJC Berendsen",
            "first-page": "331",
            "year": "1981",
            "unstructured": "Berendsen HJC, Postma JPM, Gunsteren WF, Hermans J (1981) Interaction models for water in relation to protein hydration. In: Pullman B (ed) Intermolecular forces, vol 14. The Jerusalem Symposia on Quantum Chemistry and Biochemistry. Springer, Netherlands, pp 331\u2013342. doi: 10.1007/978-94-015-7658-1_21",
            "volume-title": "Intermolecular forces, vol 14. The Jerusalem Symposia on Quantum Chemistry and Biochemistry"
        },
        "DOI_from_OpenURL": "10.1007/978-94-015-7658-1_21",
        "DOI_from_STQ": "10.1007/978-94-015-7658-1_21"
    },
    {
        "source_DOI": "10.1007/s11205-013-0280-4",
        "reference": {
            "issue": "3\u20134",
            "key": "280_CR54",
            "first-page": "525",
            "volume": "37",
            "author": "Z Zhao",
            "year": "2010",
            "unstructured": "Zhao, Z., & Guo, Z. (2010). China\u2019s below replacement fertility: A further exploration. Canadian Studies in Population, 37(3\u20134), 525\u2013562.",
            "journal-title": "Canadian Studies in Population"
        },
        "DOI_from_OpenURL": "10.25336/P6889N",
        "DOI_from_STQ": "10.25336/P6889N"
    },
    {
        "source_DOI": "10.1093/sleep/zsy128",
        "reference_previous": {
            "issue": "2",
            "key": "\nkey\n\t\t\t\t20180911123352_CIT0006",
            "first-page": "119",
            "article-title": "Sodium oxybate demonstrates long-term efficacy for the treatment of cataplexy in patients with narcolepsy",
            "volume": "5",
            "author": "The US Xyrem Multicenter Study Group",
            "year": "2004",
            "journal-title": "Sleep Med"
        },
        "reference": {
            "issue": "2",
            "key": "key\n\t\t\t\t20180911123352_CIT0006",
            "first-page": "119",
            "article-title": "Sodium oxybate demonstrates long-term efficacy for the treatment of cataplexy in patients with narcolepsy",
            "volume": "5",
            "author": "The US Xyrem Multicenter Study Group",
            "year": "2004",
            "journal-title": "Sleep Med"
        },
        "DOI_from_OpenURL": "10.1016/j.sleep.2003.11.002",
        "DOI_from_STQ": null
    },
    {
        "source_DOI": "10.1007/s00264-013-1893-6",
        "reference": {
            "key": "1893_CR28",
            "first-page": "107",
            "volume": "174",
            "author": "MH Meyers",
            "year": "1983",
            "unstructured": "Meyers MH, Jones RE, Bucholz RW, Wenger DR (1983) Fresh autogenous grafts and osteochondral allografts for the treatment of segmental collapse in osteonecrosis of the hip. Clin Orthop Relat Res 174:107\u2013112",
            "journal-title": "Clin Orthop Relat Res"
        },
        "DOI_from_OpenURL": null,
        "DOI_from_STQ": "10.1097/00003086-198304000-00012"
    },
    {
        "source_DOI": "10.1515/nleng-2016-0073",
        "reference": {
            "key": "ref71",
            "first-page": "301",
            "article-title": "Mixed convection boundary layer flow on a vertical surface in a saturated porous medium of",
            "volume": "14",
            "author": "Merkin",
            "year": "1980",
            "journal-title": "Journal Engineering Mathematics"
        },
        "DOI_from_OpenURL": "10.1007/BF00052913",
        "DOI_from_STQ": null
    },
    {
        "source_DOI": "10.1007/s10980-015-0193-5",
        "reference": {
            "key": "193_CR74",
            "author": "L Rayner",
            "year": "2013",
            "unstructured": "Rayner L, Ellis M, Taylor JE (2013) Hollow occurrence and abundance varies with tree characteristics and among species in temperate woodland Eucalyptus. Austral Ecol. doi: 10.1111/aec.12052",
            "journal-title": "Austral Ecol"
        },
        "DOI_from_OpenURL": null,
        "DOI_from_STQ": "10.1111/aec.12052"
    },
    {
        "source_DOI": "10.1002/cnm.747",
        "reference": {
            "key": "10.1002/cnm.747-BIB1|cit1",
            "first-page": "411",
            "article-title": "A comparative study of numerical methods for moving boundary problems",
            "volume": "26",
            "author": "Furzeland",
            "year": "1980",
            "journal-title": "Journal of the Institute of Mathematical and Its Applications"
        },
        "DOI_from_OpenURL": "10.1093/imamat/26.4.411",
        "DOI_from_STQ": null
    },
    {
        "source_DOI": "10.1007/s10922-014-9322-8",
        "reference": {
            "key": "9322_CR13",
            "unstructured": "Jain, S., Kumar, A., Mandal, S., Ong, J., Poutievski, L., Singh, A., Venkata, S., Wanderer, J., Zhou, J., Zhu, M., Zolla, J., H\u00f6lzle, U., Stuart, S., Vahdat, A.: B4: experience with a globally-deployed software defined WAN. In: ACM SIGCOMM (2013)"
        },
        "DOI_from_OpenURL": null,
        "DOI_from_STQ": "10.1145/2486001.2486019"
    },
    {
        "source_DOI": "10.1002/ana.410240406",
        "reference": {
            "key": "10.1002/ana.410240406-BIB30",
            "author": "Fontana",
            "volume": "307",
            "first-page": "273",
            "year": "1984",
            "journal-title": "Nature"
        },
        "DOI_from_OpenURL": "10.1038/307273a0",
        "DOI_from_STQ": null
    },
    {
        "source_DOI": "10.1007/s10586-017-1147-2",
        "reference": {
            "key": "1147_CR25",
            "unstructured": "Yan, C., Li, T., Huang, Y., Gan, Y.: Hmfs: efficient support of small files processing over HDFS. In: Proceedings of International Conference on Algorithms and Architectures for Parallel Processing, pp. 54\u201367 (2014)"
        },
        "DOI_from_OpenURL": null,
        "DOI_from_STQ": "10.1007/978-3-319-11194-0_5"
    },
    {
        "source_DOI": "10.1080/00036810108840907",
        "reference": {
            "key": "CIT0004",
            "author": "Hino Y.",
            "volume": "1473",
            "year": "1991",
            "volume-title": "Lect. Notes Math"
        },
        "DOI_from_OpenURL": "10.1007/BFb0084432",
        "DOI_from_STQ": null
    },
    {
        "source_DOI": "10.1002/bip.360280205",
        "reference": {
            "key": "10.1002/bip.360280205-BIB25",
            "author": "Hanna",
            "volume": "68",
            "first-page": "811",
            "year": "1964",
            "journal-title": "J. Phys. Chem."
        },
        "DOI_from_OpenURL": "10.1021/j100786a018",
        "DOI_from_STQ": null
    },
    {
        "source_DOI": "10.1007/bf00655885",
        "reference": {
            "key": "CR16",
            "first-page": "1099",
            "volume": "1",
            "author": "M Iwasaki",
            "year": "1954",
            "unstructured": "Iwasaki M (1954) J Polym Sci A-1 1099",
            "journal-title": "J Polym Sci A"
        },
        "DOI_from_OpenURL": null,
        "DOI_from_STQ": "10.1002/pol.1963.100010402"
    },
    {
        "source_DOI": "10.1145/2968455.2968516",
        "reference": {
            "key": "key-10.1145/2968455.2968516-27",
            "unstructured": "B. S. Wheeler et al. Uncoupling of genomic and epigenetic signals in the maintenance and inheritance of heterochromatin domains in fission yeast.Genetics, 190(2):549--557, 2012."
        },
        "DOI_from_OpenURL": null,
        "DOI_from_STQ": "10.1534/genetics.111.137083"
    },
    {
        "source_DOI": "10.3758/bf03329066",
        "reference": {
            "key": "BF03329066_CR2",
            "first-page": "721",
            "volume": "4",
            "author": "E Jacobs",
            "year": "1969",
            "unstructured": "JACOBS, E., WINTER, P., ALVIS, H., & SMALL S. Hyperoxygenation effect on cognitive functioning in the aged. APA Proceedings, 1969, 4, 721\u2013722.",
            "journal-title": "APA Proceedings"
        },
        "DOI_from_OpenURL": null,
        "DOI_from_STQ": "10.1056/NEJM196910022811402"
    },
    {
        "source_DOI": "10.1079/ivp2005728",
        "reference": {
            "key": "2005728_CR20",
            "first-page": "218",
            "volume": "13",
            "author": "J.-L. Verdeil",
            "year": "1994",
            "unstructured": "Verdeil, J.-L.; Huet, C.; Grosdemange F.; Buffard-Morel, J. Plant regeneration from cultured immature inflorescence of coconut (Cocos nucifera L.): evidence for somatic embryogenesis. Plant Cell Rep. 13:218\u2013221: 1994.",
            "journal-title": "Plant Cell Rep."
        },
        "DOI_from_OpenURL": null,
        "DOI_from_STQ": "10.1007/BF00239896"
    },
    {
        "source_DOI": "10.1080/0907676x.2017.1359323",
        "reference": {
            "key": "CIT0071",
            "author": "P\u00e9rez-Gonz\u00e1lez L.",
            "year": "2014",
            "volume-title": "Audiovisual translation: Theories, methods and issues"
        },
        "DOI_from_OpenURL": "10.4324/9781315762975",
        "DOI_from_STQ": null
    },
    {
        "source_DOI": "10.1007/978-3-319-28329-6_13",
        "reference": {
            "issue": "7",
            "key": "13_CR13",
            "first-page": "921",
            "volume": "9",
            "author": "G. Liew",
            "year": "2014",
            "unstructured": "G. Liew, M.L. Baker, T.Y. Wong, P.J. Hand, J.J. Wang, P. Mitchell, D.A. De Silva, M.C. Wong, E. Rochtchina, R.I. Lindley, J.M. Wardlaw, G.J. Hankey, Multi-Centre Retinal Stroke Study Group, Differing associations of white matter lesions and lacunar infarction with retinal microvascular signs. Int. J. Stroke 9(7), 921\u20135 (2014)",
            "journal-title": "Differing associations of white matter lesions and lacunar infarction with retinal microvascular signs. Int. J. Stroke"
        },
        "DOI_from_OpenURL": null,
        "DOI_from_STQ": "10.1111/j.1747-4949.2012.00865.x"
    },
    {
        "source_DOI": "10.1038/16615",
        "reference": {
            "key": "BF16615_CR10",
            "author": "W Grundy",
            "first-page": "379",
            "year": "1991",
            "unstructured": "Grundy, W. & Fink, U. Icarus 93, 379\u2013385 (1991).",
            "volume-title": "Icarus"
        },
        "DOI_from_OpenURL": "10.1016/0019-1035(91)90220-N",
        "DOI_from_STQ": "10.1016/0019-1035(91)90220-N"
    },
    {
        "source_DOI": "10.1007/bf02381879",
        "reference": {
            "key": "BF02381879_CR7",
            "author": "T. Hasegawa",
            "first-page": "90",
            "year": "1989",
            "unstructured": "Hasegawa, T. 1989. Sexual behavior of immigrant and resident female chimpanzees at Mahale. In:Understanding Chimpanzees,Heltne,P. G.;Marquardt,L. A. (eds.), Harvard Univ. Press, Cambridge, Massachusetts, pp. 90\u2013103.",
            "volume-title": "Understanding Chimpanzees"
        },
        "DOI_from_OpenURL": null,
        "DOI_from_STQ": "10.4159/harvard.9780674183858.c11"
    },
    {
        "source_DOI": "10.1002/uog.1753",
        "reference": {
            "key": "10.1002/uog.1753-BIB3",
            "author": "Brauner",
            "volume": "64",
            "first-page": "721",
            "year": "1997",
            "journal-title": "Ann Thorac Surg"
        },
        "DOI_from_OpenURL": "10.1016/S0003-4975(97)00632-2",
        "DOI_from_STQ": null
    },
    {
        "source_DOI": "10.1515/chem-2015-0022",
        "reference": {
            "key": "ref61",
            "first-page": "27",
            "article-title": "Process",
            "volume": "29",
            "author": "Krawczyk",
            "year": "2009",
            "journal-title": "Plasma Chem Plasma"
        },
        "DOI_from_OpenURL": "10.1007/s11090-008-9159-6",
        "DOI_from_STQ": null
    },
    {
        "source_DOI": "10.1034/j.1600-051x.2003.10196.x",
        "reference": {
            "key": "b19_268",
            "author": "Loe H.",
            "volume": "21",
            "first-page": "533",
            "year": "1963",
            "journal-title": "Acta Odontologica Scandinavica"
        },
        "DOI_from_OpenURL": "10.3109/00016356309011240",
        "DOI_from_STQ": null
    },
    {
        "source_DOI": "10.1614/0890-037x(2001)015[0026:eoiato]2.0.co;2",
        "reference": {
            "key": "i0890-037X-15-1-26-Webster1",
            "unstructured": "T. M. Webster, J. W. Wilcut, and H. D. Coble .1997 .Influence of AC 263,222 rate and application method on weed management in peanut (Arachis hypogaea)., Weed Technol, 11 :520 \u2013526 ."
        },
        "DOI_from_OpenURL": null,
        "DOI_from_STQ": "10.1017/S0890037X00045358"
    },
    {
        "source_DOI": "10.1177/2158244013515686",
        "reference": {
            "key": "bibr43-2158244013515686",
            "author": "Liniauskaite A.",
            "volume": "40",
            "first-page": "66",
            "year": "2009",
            "journal-title": "Psichologija"
        },
        "DOI_from_OpenURL": "10.15388/Psichol.2009.0.2585",
        "DOI_from_STQ": null
    },
    {
        "source_DOI": "10.1186/1471-2458-11-513",
        "reference": {
            "key": "3279_CR47",
            "first-page": "190",
            "volume": "22",
            "author": "MD Kirtley",
            "year": "1999",
            "unstructured": "Kirtley MD, Weaver JB: Exploring the impact of gender role self-perception on communication style. WSIC. 1999, 22: 190-209.",
            "journal-title": "WSIC"
        },
        "DOI_from_OpenURL": null,
        "DOI_from_STQ": "10.1080/07491409.1999.10162420"
    },
    {
        "source_DOI": "10.1002/(sici)1097-010x(19990701)284:2<147::aid-jez4>3.0.co;2-z",
        "reference": {
            "key": "10.1002/(SICI)1097-010X(19990701)284:2<147::AID-JEZ4>3.0.CO;2-Z-BIB44",
            "author": "Ward",
            "volume": "70",
            "first-page": "817",
            "year": "1973",
            "journal-title": "Proc Natl Acad Sci USA"
        },
        "DOI_from_OpenURL": "10.1073/pnas.70.3.817",
        "DOI_from_STQ": null
    },
    {
        "source_DOI": "10.7717/peerj.4502",
        "reference": {
            "key": "10.7717/peerj.4502/ref-37",
            "first-page": "2894",
            "article-title": "GLABRA2 directly suppresses basic helix-loop-helix transcription factor genes with diverse functions in root hair development",
            "volume": "27",
            "author": "Lin",
            "year": "2015",
            "journal-title": "Plant Cell"
        },
        "DOI_from_OpenURL": "10.1105/tpc.15.00207",
        "DOI_from_STQ": null
    },
    {
        "source_DOI": "10.1177/1087054714521292",
        "reference": {
            "key": "bibr2-1087054714521292",
            "author": "Carlson C. L.",
            "volume": "9",
            "first-page": "499",
            "year": "2000",
            "journal-title": "Child and Adolescent Psychiatric Clinics of North America"
        },
        "DOI_from_OpenURL": "10.1016/S1056-4993(18)30103-2",
        "DOI_from_STQ": null
    },
    {
        "source_DOI": "10.1002/ddr.430280407",
        "reference": {
            "key": "10.1002/ddr.430280407-BIB7",
            "author": "Dubinsky",
            "volume": "28",
            "first-page": "241",
            "year": "1984",
            "journal-title": "Prostaglandins"
        },
        "DOI_from_OpenURL": "10.1016/0090-6980(84)90060-1",
        "DOI_from_STQ": null
    },
    {
        "source_DOI": "10.1093/ereh/hey001",
        "reference": {
            "key": "key\n\t\t\t\t2018111510162123700_hey001C14",
            "first-page": "445",
            "article-title": "Equipment investment and economic growth",
            "volume": "106",
            "author": "De Long",
            "year": "1991",
            "journal-title": "Quarterly Journal of Economics"
        },
        "DOI_from_OpenURL": "10.2307/2937944",
        "DOI_from_STQ": null
    },
    {
        "source_DOI": "10.1093/ereh/hey001",
        "reference": {
            "key": "key\n\t\t\t\t2018111510162123700_hey001C28",
            "first-page": "62",
            "article-title": "The myth of Asia\u2019s miracle",
            "volume": "73",
            "author": "Krugman",
            "year": "1994",
            "journal-title": "Foreign Affairs"
        },
        "DOI_from_OpenURL": "10.2307/20046929",
        "DOI_from_STQ": null
    },
    {
        "source_DOI": "10.1007/s11665-016-2220-3",
        "reference": {
            "key": "2220_CR5",
            "year": "2007",
            "edition": "1",
            "unstructured": "D. F\u00e9ron and J.-M. Olive, Ed., Corrosion Issues in Light Water Reactors\u2014Stress Corrosion Cracking, 1st ed., Woodhead Publishing, Cambridge, 2007",
            "volume-title": "Corrosion Issues in Light Water Reactors\u2014Stress Corrosion Cracking"
        },
        "DOI_from_OpenURL": null,
        "DOI_from_STQ": "10.1533/9781845693466"
    },
    {
        "source_DOI": "10.1007/s00220-006-0144-8",
        "reference": {
            "issue": "1",
            "key": "144_CR29",
            "first-page": "1",
            "volume": "2",
            "author": "J. Nolen",
            "year": "2005",
            "unstructured": "Nolen J., Rudd M., Xin J. (2005) Existence of KPP fronts in spatially-temporally periodic advection and variational principle for propagation speeds. Dynamics of PDE 2(1): 1\u201324",
            "journal-title": "Dynamics of PDE"
        },
        "DOI_from_OpenURL": null,
        "DOI_from_STQ": "10.4310/DPDE.2005.v2.n1.a1"
    },
    {
        "source_DOI": "10.1007/s11051-013-1438-3",
        "reference": {
            "key": "1438_CR17",
            "first-page": "11",
            "volume": "214",
            "author": "T Doert",
            "year": "1999",
            "unstructured": "Doert T, Rademacher O, Getzschmann J (1999) Crystal structure of dysprosium hydroxide carbonate DyOHCO3. Z Krist New Cryst St 214:11\u201312",
            "journal-title": "Z Krist New Cryst St"
        },
        "DOI_from_OpenURL": null,
        "DOI_from_STQ": "10.1515/ncrs-1999-0107"
    },
    {
        "source_DOI": "10.1002/mus.880100302",
        "reference": {
            "key": "10.1002/mus.880100302-BIB12",
            "author": "Davies",
            "volume": "20",
            "first-page": "259",
            "year": "1983",
            "journal-title": "J Med Genet"
        },
        "DOI_from_OpenURL": "10.1136/jmg.20.4.259",
        "DOI_from_STQ": null
    },
    {
        "source_DOI": "10.1007/jhep10(2014)061",
        "reference": {
            "key": "9028_CR71",
            "first-page": "043524",
            "volume": "D 90",
            "author": "MR Buckley",
            "year": "2014",
            "unstructured": "M.R. Buckley, J. Zavala, F.-Y. Cyr-Racine, K. Sigurdson and M. Vogelsberger, Scattering, Damping and Acoustic Oscillations: Simulating the Structure of Dark Matter Halos with Relativistic Force Carriers, Phys. Rev. D 90 (2014) 043524 [\narXiv:1405.2075\n\n] [\nINSPIRE\n\n].",
            "journal-title": "Phys. Rev."
        },
        "DOI_from_OpenURL": null,
        "DOI_from_STQ": "10.1103/PhysRevD.90.043524"
    },
    {
        "source_DOI": "10.5487/tr.2015.31.4.347",
        "reference": {
            "key": "DSHHBQ_2015_v31n4_347_005",
            "volume": "122",
            "first-page": "1300",
            "year": "1992",
            "journal-title": "J. Nutr."
        },
        "DOI_from_OpenURL": "10.1093/jn/122.6.1300",
        "DOI_from_STQ": null
    },
    {
        "source_DOI": "10.1002/zaac.19905830104",
        "reference": {
            "key": "10.1002/zaac.19905830104-BIB6",
            "author": "Wagner",
            "volume": "549",
            "first-page": "15",
            "year": "1987",
            "journal-title": "Z. anorg. allg. Chem."
        },
        "DOI_from_OpenURL": "10.1002/zaac.19875490603",
        "DOI_from_STQ": null
    },
    {
        "source_DOI": "10.1590/s1413-82712008000100007",
        "reference": {
            "key": "ref4",
            "first-page": "185",
            "article-title": "Consultation to administrators",
            "volume": "10",
            "author": "Blader J. C.",
            "year": "2001",
            "journal-title": "Child and Adolescent Psychiatric Clinics of North America",
            "ISSN": "http://id.crossref.org/issn/1056-4993",
            "issn-type": "print"
        },
        "DOI_from_OpenURL": "10.1016/S1056-4993(18)30084-1",
        "DOI_from_STQ": null
    },
    {
        "source_DOI": "10.1093/ndt/gfx328",
        "reference_previous": {
            "key": "\nkey\n\t\t\t\t20180118043116_gfx328-B5",
            "volume": "29",
            "first-page": "1",
            "year": "2014",
            "article-title": "Pathophysiology and management of septic acute kidney injury",
            "journal-title": "Pediatr Nephrol",
            "DOI": "10.1007/s00467-013-2427-6",
            "doi-asserted-by": "crossref"
        },
        "reference": {
            "key": "key\n\t\t\t\t20180702062803_gfx328-B5",
            "first-page": "1",
            "article-title": "Pathophysiology and management of septic acute kidney injury",
            "volume": "29",
            "author": "Romanovsky",
            "year": "2014",
            "journal-title": "Pediatr Nephrol"
        },
        "DOI_from_OpenURL": "10.1007/s00467-013-2427-6",
        "DOI_from_STQ": null
    },
    {
        "source_DOI": "10.1093/humrep/dew178",
        "reference": {
            "key": "2016081908424511000_31.9.2142.8",
            "first-page": "75",
            "article-title": "Data quality after restructuring a national medical registry",
            "volume": "23",
            "author": "Gissler",
            "year": "1995",
            "journal-title": "Scand J Soc Med"
        },
        "DOI_from_OpenURL": "10.1177/140349489502300113",
        "DOI_from_STQ": null
    },
    {
        "source_DOI": "10.1002/hlca.19940770502",
        "reference": {
            "key": "10.1002/hlca.19940770502-BIB20",
            "author": "Goodman",
            "volume": "80",
            "first-page": "1680",
            "year": "1958",
            "journal-title": "J. Am. Chem. Soc."
        },
        "DOI_from_OpenURL": "10.1021/ja01540a044",
        "DOI_from_STQ": null
    },
    {
        "source_DOI": "10.1002/bdra.10128",
        "reference": {
            "key": "BIB2",
            "author": "Antony",
            "volume": "16",
            "first-page": "501",
            "year": "1996",
            "journal-title": "Annu Rev Nutr"
        },
        "DOI_from_OpenURL": "10.1146/annurev.nu.16.070196.002441",
        "DOI_from_STQ": null
    },
    {
        "source_DOI": "10.5194/bg-13-4167-2016",
        "reference": {
            "key": "ref86",
            "unstructured": "Tsunogai, S., Watanabe, S., and Sato, T.: Is there a \u201ccontinental shelf pump\u201d for the absorption of atmospheric CO2?, Tellus B, 51, 701\u2013712, 1999."
        },
        "DOI_from_OpenURL": null,
        "DOI_from_STQ": "10.3402/tellusb.v51i3.16468"
    },
    {
        "source_DOI": "10.5194/hess-19-3653-2015",
        "reference": {
            "key": "ref5",
            "unstructured": "Chaplot, V., Darboux, F., Bourennane, H., Legu\u00e9dois, S., Silvera, N. and Phachomphon, K.: Accuracy of interpolation techniques for the derivation of digital elevation models in relation to landform types and data density, Geomorphology, 77, 126\u2013141, 2006."
        },
        "DOI_from_OpenURL": null,
        "DOI_from_STQ": "10.1016/j.geomorph.2005.12.010"
    },
    {
        "source_DOI": "10.1002/(sici)1098-2396(199810)30:2<236::aid-syn14>3.0.co;2-#",
        "reference": {
            "key": "10.1002/(SICI)1098-2396(199810)30:2<236::AID-SYN14>3.0.CO;2-#-BIB2",
            "author": "Laruelle",
            "volume": "13",
            "first-page": "295",
            "year": "1993",
            "journal-title": "Synapse"
        },
        "DOI_from_OpenURL": "10.1002/syn.890130402",
        "DOI_from_STQ": null
    },
    {
        "source_DOI": "10.1007/bf01291289",
        "reference": {
            "key": "CR7",
            "first-page": "58",
            "volume": "1",
            "author": "M. B. Shchepakin",
            "year": "1987",
            "unstructured": "M. B. Shchepakin, ?On the orthogonal descent method,? Kibernetika, No. 1, 58?62 (1987).",
            "journal-title": "Kibernetika"
        },
        "DOI_from_OpenURL": null,
        "DOI_from_STQ": "10.1007/BF01068806"
    },
    {
        "source_DOI": "10.1365/s10337-004-0480-9",
        "reference": {
            "key": "CR12",
            "unstructured": "Eimer T, Unger KK, van der Greef J (1996) TrAC, Trends Anal Chem 15:463?468"
        },
        "DOI_from_OpenURL": null,
        "DOI_from_STQ": "10.1016/S0165-9936(96)00053-2"
    },
    {
        "source_DOI": "10.1186/s13660-018-1828-2",
        "reference": {
            "issue": "3",
            "key": "1828_CR10",
            "first-page": "629",
            "volume": "21",
            "author": "M.-K. Wang",
            "year": "2018",
            "unstructured": "Wang, M.-K., Qiu, S.-L., Chu, Y.-M.: Infinite series formula for H\u00fcbner upper bounds function with applications to Hersch\u2013Pfluger distortion function. Math. Inequal. Appl. 21(3), 629\u2013648 (2018)",
            "journal-title": "Math. Inequal. Appl."
        },
        "DOI_from_OpenURL": null,
        "DOI_from_STQ": "10.7153/mia-2018-21-46"
    },
    {
        "source_DOI": "10.1201/b15608-15",
        "reference": {
            "key": "p_201",
            "author": "Kluytmans J.",
            "volume": "10",
            "first-page": "505",
            "year": "1997",
            "journal-title": "Clin Microbiol Rev."
        },
        "DOI_from_OpenURL": "10.1128/CMR.10.3.505",
        "DOI_from_STQ": null
    },
    {
        "source_DOI": "10.1140/epjp/i2018-11896-0",
        "reference": {
            "key": "11896_CR22",
            "first-page": "665",
            "volume": "154",
            "author": "H. Demiray",
            "year": "2004",
            "unstructured": "H. Demiray, Appl. Math. Comput. 154, 665 (2004)",
            "journal-title": "Appl. Math. Comput."
        },
        "DOI_from_OpenURL": null,
        "DOI_from_STQ": "10.1016/S0096-3003(03)00741-0"
    },
    {
        "source_DOI": "10.1093/ereh/hey001",
        "reference": {
            "key": "key\n\t\t\t\t2018111510162123700_hey001C21",
            "first-page": "1403",
            "article-title": "Misallocation and manufacturing TFP in China and India",
            "volume": "124",
            "author": "Hsieh",
            "year": "2009",
            "journal-title": "Quarterly Journal of Economics"
        },
        "DOI_from_OpenURL": "10.1162/qjec.2009.124.4.1403",
        "DOI_from_STQ": null
    },
    {
        "source_DOI": "10.1029/98jd01639",
        "reference": {
            "key": "10.1029/98JD01639-BIB0007|jgrd6015-cit-0007",
            "first-page": "S1",
            "article-title": "Climate assessment for 1995",
            "volume": "77",
            "author": "Halpert",
            "year": "1996",
            "journal-title": "Bull. Am. Meteorol. Soc."
        },
        "DOI_from_OpenURL": "10.1175/1520-0477-77.5s.S1",
        "DOI_from_STQ": null
    },
    {
        "source_DOI": "10.5194/hess-19-3653-2015",
        "reference": {
            "key": "ref57",
            "unstructured": "Yang, X. and Hodler, T.: Visual and statistical comparisons of surface modeling techniques for point-based environmental data, Cartography and Geographic Information Science, 27, 165\u2013175, 2000."
        },
        "DOI_from_OpenURL": null,
        "DOI_from_STQ": "10.1559/152304000783547911"
    },
    {
        "source_DOI": "10.1007/978-3-319-32552-1_68",
        "reference": {
            "key": "68_CR34",
            "author": "T. Ogata",
            "first-page": "1858",
            "year": "2007",
            "unstructured": "T. Ogata, M. Murase, J. Tani, K. Komatani, H.G. Okuno: Two-way translation of compound sentences and arm motions by recurrent neural networks, Proc. IEEE/RSJ Int. Conf.  Intell. Robots  Syst. (IROS) (2007) pp. 1858\u20131863",
            "volume-title": "Proc. IEEE/RSJ Int. Conf. Intell. Robots Syst. (IROS)"
        },
        "DOI_from_OpenURL": null,
        "DOI_from_STQ": "10.1109/IROS.2007.4399265"
    },
    {
        "source_DOI": "10.1002/(sici)1099-1395(199803)11:3<157::aid-poc994>3.0.co;2-#",
        "reference": {
            "key": "10.1002/(SICI)1099-1395(199803)11:3<157::AID-POC994>3.0.CO;2-#-BIB37",
            "author": "Kitagawa",
            "volume": "62",
            "first-page": "888",
            "year": "1997",
            "journal-title": "J. Org. Chem."
        },
        "DOI_from_OpenURL": "10.1021/jo961321p",
        "DOI_from_STQ": null
    },
    {
        "source_DOI": "10.1177/172460089801300304",
        "reference": {
            "key": "bibr17-172460089801300304",
            "author": "Bullen A.W.",
            "volume": "73",
            "first-page": "673",
            "year": "1977",
            "journal-title": "Gastroenterology"
        },
        "DOI_from_OpenURL": "10.1016/S0016-5085(19)31764-0",
        "DOI_from_STQ": null
    },
    {
        "source_DOI": "10.1007/s13324-011-0004-3",
        "reference": {
            "key": "4_CR5",
            "unstructured": "Marchenko, V.A.: Sturm-Liouville operators and their applications. Naukova Dumka, Kiev (1977) (English transl., Birkh\u00e4user, 1986)"
        },
        "DOI_from_OpenURL": null,
        "DOI_from_STQ": "10.1007/978-3-0348-5485-6"
    },
    {
        "source_DOI": "10.1371/journal.pcbi.0030016",
        "reference": {
            "key": "journal-pcbi-0030016-b005",
            "first-page": "359",
            "volume": "17",
            "author": "Marcotte",
            "year": "2001",
            "journal-title": "Bioinformatics",
            "ISSN": "http://id.crossref.org/issn/1367-4803",
            "issn-type": "print"
        },
        "DOI_from_OpenURL": "10.1093/bioinformatics/17.4.359",
        "DOI_from_STQ": null
    },
    {
        "source_DOI": "10.1093/infdis/jiy269",
        "reference": {
            "key": "key\n\t\t\t\t2018112203534618400_CIT0041",
            "first-page": "6001",
            "article-title": "Interferon alpha subtype-specific suppression of HIV-1 infection in vivo",
            "volume": "90",
            "author": "Lavender",
            "year": "2016",
            "journal-title": "J Virol"
        },
        "DOI_from_OpenURL": "10.1128/JVI.00451-16",
        "DOI_from_STQ": null
    },
    {
        "source_DOI": "10.1111/syen.12304",
        "reference": {
            "key": "10.1111/syen.12304-BIB0031|syen12304-cit-0031",
            "first-page": "51",
            "article-title": "Two new species of Satonius Endr\u00f6dy-Younga from China and notes on the wing polymorphism of S. kurosawai Sat\u00f4 (Coleoptera: Myxophaga: Torridincolidae)",
            "volume": "3016",
            "author": "H\u00e1jek",
            "year": "2011",
            "journal-title": "Zootaxa"
        },
        "DOI_from_OpenURL": "10.11646/zootaxa.3016.1.4",
        "DOI_from_STQ": null
    },
    {
        "source_DOI": "10.1051/matecconf/20165602009",
        "reference": {
            "key": "R10",
            "unstructured": "Babiarz A., Czornik A., Klamka J., Niezabitowski M. and Zawiski R.: Proceedings of the 19th International Conference on Methods and Models in Automation and Robotics (MMAR 2014) (2014), 508\u2013513."
        },
        "DOI_from_OpenURL": null,
        "DOI_from_STQ": "10.1109/MMAR.2014.6957406"
    },
    {
        "source_DOI": "10.1186/1471-2474-3-22",
        "reference": {
            "key": "33_CR14",
            "author": "DM Kado",
            "first-page": "1215",
            "year": "1999",
            "unstructured": "Kado DM, Browner WS, Palermo L: Vertebral fractures and mortality in older women: a prospective study. Arch Intern Med. 1999, 1215-1220. 10.1001/archinte.159.11.1215.",
            "volume-title": "Arch Intern Med"
        },
        "DOI_from_OpenURL": "10.1001/archinte.159.11.1215",
        "DOI_from_STQ": "10.1001/archinte.159.11.1215"
    },
    {
        "source_DOI": "10.1111/j.1460-9568.2004.03735.x",
        "reference": {
            "key": "b14_864",
            "author": "Shibuki K.",
            "volume": "549",
            "first-page": "919",
            "year": "2003",
            "journal-title": "J. Physiol. (Lond.)"
        },
        "DOI_from_OpenURL": "10.1113/jphysiol.2003.040709",
        "DOI_from_STQ": null
    },
    {
        "source_DOI": "10.1002/mar.20383",
        "reference": {
            "key": "10.1002/mar.20383-BIB61|cit61",
            "first-page": "298",
            "article-title": "Salesperson roles: Are online retailers meeting customer expectations",
            "volume": "33",
            "author": "Kim",
            "year": "2005",
            "journal-title": "International of Journal of Retail & Distribution"
        },
        "DOI_from_OpenURL": "10.1108/09590550510593220",
        "DOI_from_STQ": null
    },
    {
        "source_DOI": "10.1007/bf02620554",
        "reference": {
            "key": "BF02620554_CR5",
            "author": "W. G. Clancy Jr.",
            "first-page": "13",
            "year": "1988",
            "unstructured": "Clancy, W. G. Jr.: Arthroscopic anterior cruciate ligament reconstruction with patellar tendon. In: Dorr, L. (ed.): Techniques in orthopedics. Frederick, Aspen 1988, p. 13\u201322.",
            "volume-title": "Techniques in orthopedics"
        },
        "DOI_from_OpenURL": "10.1097/00013611-198801000-00003",
        "DOI_from_STQ": "10.1097/00013611-198801000-00003"
    },
    {
        "source_DOI": "10.1201/b10369-6",
        "reference": {
            "key": "p_15",
            "unstructured": "SM Becker, WT McDaniel, and E Baeverstad .2006. Development and implementation of the highway structures information system for the Wisconsin Department of Transportation. Paper no. 06-1480 ,86th Annual Meeting, TRB,Washington, DC."
        },
        "DOI_from_OpenURL": null,
        "DOI_from_STQ": "10.1177/0361198106195800101"
    },
    {
        "source_DOI": "10.5089/9781484320723.001",
        "reference": {
            "key": "ref311",
            "first-page": "3228",
            "article-title": "Optimal interest rate rules, asset prices, and credit frictions",
            "volume": "31",
            "author": "Faia",
            "year": "2007",
            "journal-title": "Journal of Economic Dynamics and Control"
        },
        "DOI_from_OpenURL": "10.1016/j.jedc.2006.11.006",
        "DOI_from_STQ": null
    },
    {
        "source_DOI": "10.1002/prep.19810060106",
        "reference": {
            "key": "10.1002/prep.19810060106-BIB5",
            "author": "Spencer",
            "volume": "21",
            "first-page": "527",
            "year": "1950",
            "journal-title": "J. Appl. Phys."
        },
        "DOI_from_OpenURL": "10.1063/1.1699700",
        "DOI_from_STQ": null
    },
    {
        "source_DOI": "10.1084/jem.186.3.433",
        "reference": {
            "key": "2016021215554266000_186.3.433.19",
            "first-page": "757",
            "article-title": "ATL-derived factor (ADF), an IL-2 receptor/ Tac inducer homologous to thioredoxin; possible involvement of dithiol-reduction in the IL-2 receptor induction",
            "volume": "8",
            "author": "Tagaya",
            "year": "1989",
            "journal-title": "EMBO (Eur Mol Biol Organ) J"
        },
        "DOI_from_OpenURL": "10.1002/j.1460-2075.1989.tb03436.x",
        "DOI_from_STQ": null
    },
    {
        "source_DOI": "10.4324/9781315464015-3",
        "reference": {
            "key": "ref2",
            "unstructured": "Adam, S. , M. Maier , C.H. de Vreese , A.R. Schuck , V. Stetka , C. Jalali et al. (2013), \u2018Campaigning against Europe? The role of Euroskeptic fringe and mainstream parties in the 2009 European Parliament election\u2019, Journal of Political Marketing, 12: 77\u201399."
        },
        "DOI_from_OpenURL": null,
        "DOI_from_STQ": "10.1080/15377857.2013.752245"
    },
    {
        "source_DOI": "10.1080/00344087.2015.1085118",
        "reference": {
            "issue": "1",
            "key": "cit0027",
            "first-page": "6",
            "volume": "7",
            "author": "Severe M.K.",
            "year": "2010",
            "journal-title": "Christian Education Journal"
        },
        "DOI_from_OpenURL": "10.1177/073989131000700102",
        "DOI_from_STQ": null
    },
    {
        "source_DOI": "10.1201/b21483-17",
        "reference": {
            "key": "p_10",
            "author": "DeSombre E. R.",
            "year": "2006",
            "volume-title": "Flagging Standards: Globalization and Environmental, Safety, and Labor Regulations at Sea"
        },
        "DOI_from_OpenURL": "10.7551/mitpress/3031.001.0001",
        "DOI_from_STQ": null
    },
    {
        "source_DOI": "10.1046/j.1540-8175.2003.03028.x",
        "reference": {
            "key": "b3_170",
            "author": "Tighe D",
            "volume": "131",
            "first-page": "616",
            "year": "1996",
            "journal-title": "Am Heart J"
        },
        "DOI_from_OpenURL": "10.1016/S0002-8703(96)90550-5",
        "DOI_from_STQ": null
    },
    {
        "source_DOI": "10.1080/1120009x.1989.11738910",
        "reference": {
            "key": "CIT0016",
            "unstructured": "Aldridge KE, Schiro DD, Sanders CV. Comparative in vitro activity of the new oral cephalosporin BMY-28100. Eur J Clin Microbiol, 1987; 6: 170\u2013172."
        },
        "DOI_from_OpenURL": null,
        "DOI_from_STQ": "10.1007/BF02018202"
    },
    {
        "source_DOI": "10.1057/9781137273901_30",
        "reference": {
            "key": "30_CR312",
            "author": "A Plakans",
            "first-page": "167",
            "year": "1983",
            "unstructured": "Plakans, Andrejs (1983), \u2018The Familial Context of Early Childhood in Baltic Serf Society\u2019. In Wall, Robin and Laslett, 167\u2013206.",
            "volume-title": "\u2018The Familial Context of Early Childhood in Baltic Serf Society\u2019"
        },
        "DOI_from_OpenURL": null,
        "DOI_from_STQ": "10.1017/CBO9780511897535.006"
    },
    {
        "source_DOI": "10.1002/zaac.19673500303",
        "reference": {
            "key": "10.1002/zaac.19673500303-BIB3",
            "author": "Schrader",
            "volume": "309",
            "first-page": "55",
            "year": "1961",
            "journal-title": "Z. anorg. allg. Chem."
        },
        "DOI_from_OpenURL": "10.1002/zaac.19613090106",
        "DOI_from_STQ": null
    },
    {
        "source_DOI": "10.1186/s41476-017-0040-1",
        "reference": {
            "key": "40_CR8",
            "first-page": "012031",
            "volume": "311",
            "author": "X Zhang",
            "year": "2011",
            "unstructured": "Zhang, X., Jiang, X., Scott, P.J.: A minimax fitting algorithm for ultra-precision aspheric surfaces. J. Phys.: Conf. Ser. 311, 012031 (2011)",
            "journal-title": "J. Phys.: Conf. Ser."
        },
        "DOI_from_OpenURL": "10.1088/1742-6596/311/1/012031",
        "DOI_from_STQ": "10.1088/1742-6596/311/1/012031"
    },
    {
        "source_DOI": "10.1007/s00068-016-0635-z",
        "reference": {
            "issue": "11",
            "key": "635_CR10",
            "first-page": "801",
            "volume": "33",
            "author": "C Kural",
            "year": "2010",
            "unstructured": "Kural C, Sungur I, Kaya I, Ugras A, Erturk A, Cetinus E. Evaluation of the reliability of classification systems used for distal radius fractures. Orthopedics. 2010;33(11):801.",
            "journal-title": "Orthopedics."
        },
        "DOI_from_OpenURL": null,
        "DOI_from_STQ": "10.3928/01477447-20100924-14"
    },
    {
        "source_DOI": "10.1007/s11882-012-0289-9",
        "reference": {
            "issue": "5 Suppl",
            "key": "289_CR3",
            "first-page": "1",
            "volume": "5",
            "author": "A Host",
            "year": "1994",
            "unstructured": "Host A. Cow's milk protein allergy and intolerance in infancy. Some clinical, epidemiological and immunological aspects. Pediatr Allergy Immunol: Off Publ Eur Soc Pediatr Allergy Immunol. 1994;5(5 Suppl):1\u201336. Epub 1994/01/01.",
            "journal-title": "Pediatr Allergy Immunol: Off Publ Eur Soc Pediatr Allergy Immunol"
        },
        "DOI_from_OpenURL": null,
        "DOI_from_STQ": "10.1111/j.1399-3038.1994.tb00352.x"
    },
    {
        "source_DOI": "10.1093/eurheartj/ehx488",
        "reference_previous": {
            "key": "\nkey\n\t\t\t\t20180726021927_ehx488-B38",
            "first-page": "477",
            "article-title": "Everolimus-Versus Novolimus-Eluting Bioresorbable Scaffolds for the Treatment of Coronary Artery Disease: A Matched Comparison",
            "volume": "10",
            "author": "Wiebe",
            "year": "2017",
            "journal-title": "JACC Cardiovasc Interv"
        },
        "reference": {
            "key": "key\n\t\t\t\t20180726021927_ehx488-B38",
            "first-page": "477",
            "article-title": "Everolimus-Versus Novolimus-Eluting Bioresorbable Scaffolds for the Treatment of Coronary Artery Disease: A Matched Comparison",
            "volume": "10",
            "author": "Wiebe",
            "year": "2017",
            "journal-title": "JACC Cardiovasc Interv"
        },
        "DOI_from_OpenURL": "10.1016/j.jcin.2016.11.034",
        "DOI_from_STQ": null
    },
    {
        "source_DOI": "10.1186/1471-2458-12-500",
        "reference": {
            "issue": "739",
            "key": "4144_CR28",
            "first-page": "745",
            "volume": "324",
            "author": "DF Williamson",
            "year": "1991",
            "unstructured": "Williamson DF, Madans J, Anda RF, et al: Smoking cessation and severity of weight gain in a national cohort. New Engl J Med. 1991, 324 (739): 745-",
            "journal-title": "New Engl J Med"
        },
        "DOI_from_OpenURL": null,
        "DOI_from_STQ": "10.1056/NEJM199103143241106"
    },
    {
        "source_DOI": "10.1093/jee/toy140",
        "reference_previous": {
            "key": "\nkey\n\t\t\t\t20180803080203_CIT0028",
            "first-page": "633",
            "article-title": "Pesticide residues in honeybees, honey and bee pollen by LC-MS/MS screening: reported death incidents in honeybees",
            "volume": "485\u2013486",
            "author": "Kasiotis",
            "year": "2014",
            "journal-title": "Sci. Total Environ"
        },
        "reference": {
            "key": "key\n\t\t\t\t20180803080203_CIT0028",
            "first-page": "633",
            "article-title": "Pesticide residues in honeybees, honey and bee pollen by LC-MS/MS screening: reported death incidents in honeybees",
            "volume": "485\u2013486",
            "author": "Kasiotis",
            "year": "2014",
            "journal-title": "Sci. Total Environ"
        },
        "DOI_from_OpenURL": "10.1016/j.scitotenv.2014.03.042",
        "DOI_from_STQ": null
    },
    {
        "source_DOI": "10.1093/gigascience/gix098",
        "reference_previous": {
            "key": "\nkey\n\t\t\t\t20180820090457_bib4",
            "first-page": "69",
            "article-title": "Initial sequence of the chimpanzee genome and comparison with the human genome",
            "volume": "437",
            "author": "Chimpanzee Sequencing and Analysis Consortium",
            "year": "2005",
            "journal-title": "Nature"
        },
        "reference": {
            "key": "key\n\t\t\t\t20180820090457_bib4",
            "first-page": "69",
            "article-title": "Initial sequence of the chimpanzee genome and comparison with the human genome",
            "volume": "437",
            "author": "Chimpanzee Sequencing and Analysis Consortium",
            "year": "2005",
            "journal-title": "Nature"
        },
        "DOI_from_OpenURL": "10.1038/nature04072",
        "DOI_from_STQ": null
    },
    {
        "source_DOI": "10.2746/042516405775314899",
        "reference": {
            "key": "10.2746/042516405775314899-BIB29|cit29",
            "first-page": "549",
            "article-title": "Small airway disease as a vanguard for chronic obstructive pulmonary disease",
            "volume": "13",
            "author": "Viel",
            "year": "1997",
            "journal-title": "Vet. Clin. N. Am.: Equine Pract."
        },
        "DOI_from_OpenURL": "10.1016/S0749-0739(17)30230-4",
        "DOI_from_STQ": null
    },
    {
        "source_DOI": "10.1002/pen.760110511",
        "reference": {
            "key": "10.1002/pen.760110511-BIB39",
            "author": "Allison",
            "volume": "54",
            "first-page": "747",
            "year": "1964",
            "journal-title": "J. Opt. Soc."
        },
        "DOI_from_OpenURL": "10.1364/JOSA.54.000747",
        "DOI_from_STQ": null
    },
    {
        "source_DOI": "10.1002/mus.880100302",
        "reference": {
            "key": "10.1002/mus.880100302-BIB7",
            "author": "Carle",
            "volume": "12",
            "first-page": "5647",
            "year": "1984",
            "journal-title": "Nucleic Acids Res"
        },
        "DOI_from_OpenURL": "10.1093/nar/12.14.5647",
        "DOI_from_STQ": null
    },
    {
        "source_DOI": "10.13182/nt13-a24986",
        "reference": {
            "key": "CIT0007",
            "author": "Gajev I.",
            "volume": "180",
            "first-page": "383",
            "year": "2012",
            "journal-title": "Nucl. Technol."
        },
        "DOI_from_OpenURL": "10.13182/NT12-A15351",
        "DOI_from_STQ": null
    },
    {
        "source_DOI": "10.1038/sdata.2017.158",
        "reference": {
            "key": "sdata2017158-b28",
            "author": "Wright J. J.",
            "volume": "10",
            "first-page": "381",
            "year": "2012",
            "journal-title": "Nat. Rev. Microbiol."
        },
        "DOI_from_OpenURL": "10.1038/nrmicro2778",
        "DOI_from_STQ": null
    },
    {
        "source_DOI": "10.1111/j.1442-2050.2003.00349.x",
        "reference_previous": {
            "key": "\nkey\n\t\t\t\t20170215231250_R1",
            "volume": "3",
            "first-page": "111",
            "year": "1967",
            "article-title": "Long-term results of visceral esophageal substitutes",
            "journal-title": "Ann Thor Surg"
        },
        "reference": {
            "key": "key\n\t\t\t\t20170215231250_R1",
            "volume": "3",
            "first-page": "111",
            "year": "1967",
            "article-title": "Long-term results of visceral esophageal substitutes",
            "journal-title": "Ann Thor Surg"
        },
        "DOI_from_OpenURL": "10.1016/S0003-4975(10)66699-4",
        "DOI_from_STQ": null
    },
    {
        "source_DOI": "10.1515/bmt-2016-0067",
        "reference": {
            "key": "ref51",
            "volume": "6",
            "first-page": "284",
            "year": "1994",
            "article-title": "Guidelines, criteria, and rules of thumb for evaluating normed and standardized assessment instruments in psychology",
            "journal-title": "Psychol Assessment"
        },
        "DOI_from_OpenURL": "10.1037/1040-3590.6.4.284",
        "DOI_from_STQ": null
    },
    {
        "source_DOI": "10.1038/s41417-018-0027-0",
        "reference": {
            "key": "27_CR10",
            "first-page": "40885",
            "volume": "8",
            "author": "W Lu",
            "year": "2017",
            "unstructured": "Lu W, Yu T, Liu S, Li S, Li S, Liu J, et al. FHL2 interacts with iASPP and impacts the biological functions of leukemia cells. Oncotarget. 2017;8:40885\u201395.",
            "journal-title": "Oncotarget"
        },
        "DOI_from_OpenURL": null,
        "DOI_from_STQ": "10.18632/oncotarget.16617"
    }
]